{
    "firstnames": [
        "Jimi",
        "Angus",
        "Iggy",
        "Bon",
        "Jimmy",
        "John",
        "Paul",
        "Ringo",
        "George",
        "David",
        "Robert",
        "Chuck",
        "Kurt",
        "Jim"
    ],
    "lastnames": [
        "Hendrix",
        "Young",
        "Pop",
        "Scott",
        "Page",
        "Lennon",
        "McCartney",
        "Starr",
        "Harrison",
        "Bowie",
        "Plant",
        "Berry",
        "Cobain",
        "Morrison"
    ],
    "brands": [
        "Gibson",
        "Fender",
        "Epiphone",
        "Squier",
        "Marshall"
    ],
    "mails": [
        "bob@neelix.com",
        "gibson@wanadoo.fr",
        "le@go.com",
        "pycharm@pyth.on",
        "unseen@dimensions.com",
        "colors@earphonic.com",
        "tala@masca.com",
        "relogiX@alone.com",
        "unforgotten@phaxe.com",
        "playgrounds@daydin.com",
        "innerself@synthex.com",
        "apex@vicetone.com"
    ],
    "large_prices": {
        "start": 1000,
        "end": 10000
    },
    "tiny_prices": {
        "start": 1,
        "end": 20
    },
    "date": {
        "format": "%d/%m/%Y, %H:%M:%S",
        "start": "1/1/2000, 00:00:00 ",
        "end": "1/1/2022, 00:00:00"
    }
}